0 7050 21810 7050 990 2400 0 0 500
2 7050 990 10900 3500 0 0 0 500
0 12700 3500 13100 4700 14100 0 1 500
0 13100 4700 13100 15090 14100 0 1 500
2 13100 15090 13100 15100 0 0 0 500
1 13100 15100 12650 15550 13094 15543 1 500
0 12650 15550 12650 17590 14100 0 1 500
1 12650 17590 13100 18100 13189 17568 1 500
2 13100 18100 13100 18110 0 0 0 500
0 13100 18110 13100 19200 0 0 0 500
1 13100 19200 12500 19800 12500 19200 0 500
0 12500 19800 10900 19800 14100 0 1 500
0 10900 19800 10900 21600 14100 0 1 500
0 10900 21600 10050 21800 0 0 0 500
0 10050 21800 4050 21800 0 0 0 500
0 4050 21800 3200 21600 0 0 0 500
0 3200 21600 3200 19800 0 0 0 500
0 3200 19800 1600 19800 0 0 0 500
1 1600 19800 1000 19200 1600 19200 0 500
0 1000 19200 1000 18110 14100 0 1 500
2 1000 18110 1000 18100 0 0 0 500
1 1000 18100 1450 17590 911 17568 1 500
0 1450 17590 1450 15550 0 0 0 500
1 1450 15550 1000 15100 1006 15543 1 500
2 1000 15100 1000 15090 0 0 0 500
0 1000 15090 1000 4700 0 0 0 500
0 1000 4700 1400 3500 0 0 0 500
0 1400 3500 3200 3500 0 0 0 500
0 3200 3500 3200 1700 0 0 0 500
0 3200 1700 3550 1000 0 0 0 500
0 3550 1000 10550 1000 0 0 0 500
0 10550 1000 10900 1700 14100 0 1 500
0 10900 1700 10900 3500 14100 0 1 500
0 12640 16050 1460 16050 0 50 0 500
2 1460 16050 1010 12850 0 0 0 500
0 1010 12850 13090 12850 0 -5250 0 500
2 13090 12850 13090 9650 0 0 0 500
0 13090 9650 1010 9650 0 -8450 0 500
2 1010 9650 1010 6450 0 0 0 500
0 1010 6450 13090 6450 0 -11650 0 500
0 10910 3500 12700 3500 0 0 0 500
2 10910 3500 13090 6450 0 0 0 500
-1 13090 6450 7050 21810 0 0 0 500
