0 3500 12390 3500 1000 0 0 0 500
2 3500 1000 4800 1000 0 0 0 500
0 4800 1000 4800 12390 0 0 0 500
2 4800 12390 6400 12390 0 0 0 500
0 6400 12390 6400 1000 0 0 0 500
2 6400 1000 8000 1000 0 0 0 500
0 8000 1000 8000 12390 0 0 0 500
2 8000 12390 9600 12390 0 0 0 500
0 9600 12390 9600 1000 0 0 0 500
2 9600 1000 10900 1000 0 0 0 500
0 10900 1000 10900 12390 0 0 0 500
2 10900 12390 10890 12390 0 0 0 500
0 10890 12390 3510 12390 0 8940 0 500
2 3510 12390 3510 10490 0 0 0 500
0 3510 10490 10890 10490 0 7040 0 500
2 10890 10490 10890 8090 0 0 0 500
0 10890 8090 3510 8090 0 4640 0 500
2 3510 8090 3510 5690 0 0 0 500
0 3510 5690 10890 5690 0 2240 0 500
2 10890 5690 10890 3290 0 0 0 500
0 10890 3290 3510 3290 0 -160 0 500
2 3510 3290 3510 990 0 0 0 500
0 3510 990 10890 990 0 -2460 0 500
-1 10890 990 3500 12390 0 -2460 0 500
